^C:\USERS\GEORGIE\SOURCE\REPOS\DYNAMICARRAYS\X64\DEBUG\SOURCE.OBJ
C:\USERS\GEORGIE\SOURCE\REPOS\DYNAMICARRAYS\X64\DEBUG\DYNAMICARRAYS.EXE
C:\USERS\GEORGIE\SOURCE\REPOS\DYNAMICARRAYS\X64\DEBUG\DYNAMICARRAYS.ILK
C:\USERS\GEORGIE\SOURCE\REPOS\DYNAMICARRAYS\X64\DEBUG\DYNAMICARRAYS.PDB
